…
Create a list of buildings

``` r
bld_list <- data_permits %>%
  mutate(r = sqrt(PARCEL_SIZE/pi) ) %>%
  select(PARCEL_NO, LOT_NUMBER, PERMIT_ISSUED, PARCEL_SIZE, lat, long, r) %>%
  arrange(PARCEL_NO, desc(PERMIT_ISSUED)) %>%
  group_by(PARCEL_NO) %>%
  summarise(n_permits=n(), last_permit=first(PERMIT_ISSUED), 
            lat=last(lat), long=last(long), r=last(r))
bld_list
```

    ## # A tibble: 5,471 × 6
    ##    PARCEL_NO n_permits last_permit      lat      long         r
    ##        <chr>     <int>      <dttm>    <dbl>     <dbl>     <dbl>
    ## 1          0         4  2011-02-16 42.37924 -83.06533        NA
    ## 2      1  1.         2  2014-01-27 42.32996 -83.04050 435.31714
    ## 3   1  1155.         2  2011-06-28 42.38558 -83.25458  56.47253
    ## 4  1  1776-7         1  2012-12-07 42.36714 -83.06868  48.97738
    ## 5   1  1936.         1  2011-09-01 42.37089 -83.07125  67.54035
    ## 6   1  1938.         1  2012-03-16 42.37073 -83.07166  40.96110
    ## 7   1  1939.         1  2011-12-02 42.37066 -83.07185  69.66314
    ## 8   1  2098.         1  2014-10-01 42.33168 -83.04800  25.79895
    ## 9  1  2182-3         2  2013-03-05 42.37422 -83.07225  40.62165
    ## 10  1  2222.         1  2011-02-22 42.33168 -83.04800  44.52811
    ## # ... with 5,461 more rows
…
